id | id_tweet | author | content | date | polarite
43655|1587327935744446465|space_melly|Après Hocus Pocus en Ciné Concert samedi ,  ce soir c'était Hocus Pocus 2 sur Disney + ❤️|2022-11-01 06:17:25+00:00|2
40702|1587103608843436033|joseluisvidal68|Grapeo de Jaloguin ! {htag} @ @ {tCo}|2022-10-31 15:26:01+00:00|1
4476|1582269532584185857|KuroYuma99|L’anime de Bleach c’est vraiment quelque chose|2022-10-18 07:17:08+00:00|2
33045|1585847814629703680|Liberer_Paris|@ @ @ @ Le 18/04 ,  lundi de Pâques &amp ,"  journée  "" Paris respire ""  rue du Sentier (2e) . ";La volonté de la Mairie de {htag} de laisser une ville propre &amp ,  agréable aux Parisiens &amp ,  touristes pour ce lg weekend est sans conteste .  Ce ,  je-m'en-foutisme n'existait pas avt @;{htag} {tCo}|2022-10-28 04:15:57+00:00|2
68892|1593604952231972869|ANMT_fr|[{htag}] ;📖;Cette semaine ,  aux @ ,"  on lit l'ouvrage  "" Willy Ronis en reportage à Saint-Étienne : Une enquête au cœur de la grève de 1948 ""  de Jean-Claude Monneret et Jean-Michel Steiner . ";Plus d'infos : {tCo} .  {tCo}|2022-11-18 14:00:03+00:00|1
58543|1591484107238043649|Habib_P0tter|Il va être temps d’arrêter de se flageller et de délaisser famille et amis pour se consacrer à une société qui te déteste .  Rappelons que certains n’ont aucun scrupule à faire grève couper transport électricité chauffage pour arriver à ses fins .  {tCo}|2022-11-12 17:32:34+00:00|0
49508|1587731253222154241|Elise67Elise76|@ @ Pourquoi les syndicats n'appellent pas à une grève que des enseignants pour les salaires . Mais pas une grève interprofessionnel  ! Vous avez peur de quoi ? |2022-11-02 09:00:04+00:00|0
66557|1592967847118270465|DianeDorman10|@ @ Ben oui voyons  !  !  !  Ils ont demandé aux experts de la santé McKenzy  !  !  !  !  !  😄😂😄|2022-11-16 19:48:25+00:00|0
71463|1594274134275547138|tik_atk|@ Par essence ,  les soignants travaillent avec des gens à risque . ; Donc si je te suis bien ,  eux devraient se vacciner .  . ; Donc sinon on ne les réintègre pas du coup .  .  ; Enfin une parole censée de ta part !   !  ! |2022-11-20 10:19:08+00:00|0
69369|1593544786526470144|123_INFO_SPORT|{htag} : Lucas Hernandez fier de concurrencer Théo ; Source : MaxiFoot {htag} {htag} {htag} ; {tCo}|2022-11-18 10:00:58+00:00|1
50749|1588094757133324289|Jack_Dalien|Disney sort un court métrage de Noël sur l’importance des liens familiaux {tCo}|2022-11-03 09:04:30+00:00|2
70642|1593905056331726850|AlainHatungima3|{htag} La journée dédiée à tous les hommes du monde est célébrée pour présenter des sujets tel que la virilité  ,  les problèmes de santé mentale chez les hommes et la prévalence du suicide chez les hommes .  Parlons-en  !  Au {htag} la santé mentale des hommes reste {htag} {tCo}|2022-11-19 09:52:33+00:00|0
34577|1585648279659810817|Lisez_Innocent|Achat du Jour ; Je me suis acheté le coffret Intégrale de Tokyo Ghoul et le calendrier de Chainsaw Man ; Niveau comics j'ai acheté deux classique ,  Superman identité secrète et the Killing Joke {tCo}|2022-10-27 15:03:04+00:00|1
65263|1592637268023705601|bobvador|@ @ Tu veux pas un peu aimer Tesla  ?  Pour la bonne cause|2022-11-15 21:54:49+00:00|1
28421|1585190032809201666|SauceEpice|Quand ton métier n'est pas utile à la société un mouvement de grève n'est pas très efficace {tCo}|2022-10-26 08:42:09+00:00|0
72682|1594680552279482377|aestheticsjv|Inside of the Salle des fêtes of the Exposition Universelle of 1900 ,  Paris {tCo}|2022-11-21 13:14:06+00:00|1
20221|1583893607462760448|flo_psg09|@ Si ça te plaît pas et que ça détruit ta santé mentale ça sert a rien de continuer dans tout les cas grosse force a toi 🙏|2022-10-22 18:50:37+00:00|2
75092|1595375708888514564|ActualiteApple|{htag} (@) ,  cofondateur d’{htag} (@) : « Il y a trop de hype autour de Tesla » {tCo}|2022-11-23 11:16:24+00:00|0
60468|1592036695913938945|Magnus714Y|Bon bah c'est aujourdhui les gars  ; {htag}感想 {htag} {htag} {htag} {tCo}|2022-11-14 06:08:21+00:00|1
71260|1594303956611727360|FouadBoudar|@ @ @ Ou ça .  😊 ; {tCo}|2022-11-20 12:17:38+00:00|1
61753|1592231560186662913|MlleMarMar|Moi : interdit d'utiliser les fluo et les stylos dans les croquis  !  !  ; Les élèves : haha oh bah oui madame quand même haha ;  ; On fait les paris pour le nombre de faux pas au premier croquis  ? |2022-11-14 19:02:40+00:00|0
70786|1594224151732133889|Magicheroesfr|Depuis sa création en 1986 ,  Labyrinthe enthousiasme petits et grands dans un concept unique : un labyrinthe en mouvement !  Adapté pour les fans de Disney ,  dévoilez les secrets du Labyrinthe Villains pour un agréable moment en famille ! , ; {tCo} {tCo}|2022-11-20 07:00:31+00:00|2
62700|1592191114484015105|haltemanga|Nouveau Reel pour vous parler de Tesla Note une série très cool chez @ ,  qui mélange , , ; Nicolas Tesla ,  Ninja et Service de sécurité Intérieur . ,, ;  ; {tCo} ;  ; Hésitez pas à me donner de la force sur les réseaux (IG ,  TIKTOK ,  YT), ;  ; {htag} {htag} {htag}|2022-11-14 16:21:57+00:00|2
48063|1587814625503940608|RizSauceTomate1|Elon Musk c’est définitivement mon Goat  .   ; Il vous manipule et créer une petite guerre d’ego pour récupérer son argent  .  ; il sait très bien que ce qu’il fait mènera au chaos|2022-11-02 14:31:21+00:00|0
37709|1586534398530584576|MarryYouProject|@ @ Riposte immédiate .  ; @ ,  il faut ouvrir une cagnotte pour frais d'avocats ,  on se cotise et on repart en procès . , ; (Le plus simple serait de reprendre Me Bou Chalhoub ,  et @ s'il peut .  .  . ),, ;  ; Le journalisme a besoin d'un sursaut déontologique . |2022-10-30 01:44:11+00:00|1
71095|1594334550745907200|mistral13075|@ @ {htag} ;  ; Depuis rien n'a changé  ;  ; {tCo}|2022-11-20 14:19:12+00:00|1
54153|1588889420677058560|DocPepper_FR|@ @ @ Une grève de deux jours .  ; Les patients vont râler car ils devront attendre le 3 pour avoir leur RO de Doliprane . |2022-11-05 13:42:12+00:00|0
76315|1595313353831981059|uReLiEn__|Aujourd’hui c’est football {tCo}|2022-11-23 07:08:37+00:00|2
40128|1586639494362664960|and__laurine|Trop envie d’aller à Disney|2022-10-30 08:41:48+00:00|2
52826|1588455005010657280|JFG_Catch|@ @  "" Croyez en vos rêves ","  peu importe leur impossibilité ""  (W .  Disney) {tCo}|2022-11-04 08:55:59+00:00|2
29204|1585526024963559425|Scarware|@ @ Bah en gros c'est la même techno qui a permis de d'intégrer un Mark Hamil jeune dans la série "" Boba Fett ""  ",  et c'est accessible avec un PC un peu puissant - ça nécessite pas les moyens de Disney pour faire des vidéos quasi parfaite . |2022-10-27 06:57:16+00:00|1
79025|1596038726756757505|Hellstrif_|INCROYABLE😱 ; Une sacré promo en se moment et jusqu'au 30 novembre sur XBOX et un peut partout pour le mmorpg @  (steam 5 . XXX€ teso)  ;  ; Et si vous vous demandez à quoi ressemble le jeux ou s'il est bien RDV maintenant sur ma chaîne {tCo} rejoins nous  !  {tCo}|2022-11-25 07:11:00+00:00|2
55224|1589491499187650566|Mavivance|@ @ TESLA t'est là ! |2022-11-07 05:34:39+00:00|2
60812|1592136578507603969|azexl2|Quand une voiture d'@ fout sa merde: vitesse excessive ,  doublage interdit ,  accidents .  .  .  On parle bien de la {htag} du mec qu'une partie du monde idolâtre !  Paraît-il qu'il fût un génie du software💩 (EN) everything musk is about {htag} and overrating an average {htag} {tCo}|2022-11-14 12:45:15+00:00|0
21119|1584144637836812290|yoan770000|@ @ @ Après effectivement on peut être en désaccord avec le système de réservation .  Mais comme tu donnes l’exemple du cinéma tu peux parfaitement aller dans une autre enseigne dans le cas de Disney si ça ne te convient pas tu peux aller au parc Astérix . |2022-10-23 11:28:08+00:00|1
67671|1593547285677445121|manjirobyun|sur prime gaming mon compte twitch est bien lié alors pourquoi je peux pas m'abonner :((|2022-11-18 10:10:54+00:00|0
47973|1587778195834736640|king_abdeuh|@ @ @ Non juste on arrête de se plaindre et on fait ce qu’il faut ;  ; Et crois moi que 2 personnes peuvent être le plus amoureux du monde que leur dispute ne se fera pas sur leur amour … mais sur les factures ,  l’essence ,  l’apart ,  le taff et accumulation de tout ça = rupture contre leur gré|2022-11-02 12:06:36+00:00|0
66093|1593248773639409670|eth_jayhan|artiste NFT  , mon inspiration est dans les comics {htag} {htag} {htag} {htag} {htag}|2022-11-17 14:24:43+00:00|2
50804|1588228488754069505|MehdiBenhajkas1|@ @ @ Tais toi tu sors en huitième ta même pas été fichu d'être premier du groupe avec ton équipe de marvel la|2022-11-03 17:55:54+00:00|0
78895|1596152005831307265|drjbc78|Le populisme nuit gravement à notre santé {tCo} via @|2022-11-25 14:41:07+00:00|0
60751|1591842349172547587|blackdekpe|@ Républicains sont contre .  Ce qui plombe le système santé américain actuel ,  c’est leur système politique trop compliqué .  Ils font deux pas en avant et trois en arrière . |2022-11-13 17:16:05+00:00|0
7173|1582685654202298369|DansMaRouille|G2022J47320  ; 1 Rue de la Roquette ,  75011 PARIS ; @ @ {tCo}|2022-10-19 10:50:39+00:00|1
23719|1584472769227636736|presseocean|{htag} L’entraîneur du {htag}  a le sentiment de s’être fait voler par l’arbitre de la rencontre François Letexier ,  dimanche à Nice (1-1) .  Amer ,  il s’est expliqué à chaud et accuse .  {htag} , ; {tCo}|2022-10-24 09:12:00+00:00|0
18814|1584145509165322241|AngelMasterFR|@ @ Il est magnifique ce Monopoly dommage qu’il y ait autant de scalpers surtout pour les produits Disney . |2022-10-23 11:31:36+00:00|2
80446|1596217062069870592|EugenieBastie|Jean-Claude Michéa:  "" LFI est passée en quelques années de la ligne de Front populaire incarnée par François Ruffin à celle libérale-woke (que symbolisent désormais Aymeric Caron et Mathilde Panot) ""   {tCo}|2022-11-25 18:59:38+00:00|0
75014|1595026430706040840|SJoces|@ @ Excessif et stupide .  Encore aujourd'hui ,  après toutes les preuves scientifiques déposées ,  on lit encore de telles aberrations .  La preuve que la santé est secondaire pour ces gens là et que leur confort du présent est prioritaire .  Après tout ,  à chacun sa vie  ! |2022-11-22 12:08:29+00:00|0
70813|1593902026546618368|jadezeganadin|JADE ,  professionnel que l'on peut consulter {tCo} …  via @,, ; Consultations tous les JEUDIS et SAMEDIS de 20h à 22h à la brasserie LE BEAUCOUR 16 avenue Hoche Paris 8 {tCo}|2022-11-19 09:40:31+00:00|1
27305|1585324741514043392|Cyphpython|@ Tres bien et toi la je viens de regardez l'episode de bleach de la semaine|2022-10-26 17:37:26+00:00|2
57532|1590680243957899266|davidlisnard|Belle perf  !  ; «À la RATP ,  50 salariés sont en grève depuis cinq ans» tout en continuant de bénéficier de la mutuelle (préférentielle) de la RATP .  Comment une telle incongruité peut-elle être possible en Droit et défendue en éthique  ?  {tCo}|2022-11-10 12:18:18+00:00|0
52833|1588452482476568576|Kazhnuz|@ ( A moins qu'il entend  "" avoir plus de franchise ""  ",  un peu comme Disney qui vient de gagner DrWho sur Disney Plus ,  et qui va créer une série Percy Jackson ,"  ce qui leur ferait gagner deux autre  "" franchise à fandom ""  .  Tout en tuant TOH qui avait un bon fandom mébon c'est Disney )|2022-11-04 08:45:58+00:00|0
76355|1595311205425774595|poteauxcarres|{htag} Nouvel entraîneur du Rodez Aveyron Football ,  toujours relégable malgré ses trois points pris à Geoffroy-Guichard ,"  Didier Santini se confie aujourd'hui dans Centre Presse Aveyron .  Extraits .   "" Ce n'est pas évident de .  .  . ", ; {tCo}|2022-11-23 07:00:05+00:00|1
71280|1594303569200443392|Keith_a_410|@ T'a un résumé si tu veux .  Mais bon .  Le premier est excellent et est à vivre .  Donc c'est mieux .  ; Et même avant de faire le premier je te recommande cette vidéo avant .  Histoire de mieux comprendre le développement de Kratos et pourquoi il est comme il est .  {tCo}|2022-11-20 12:16:06+00:00|2
29180|1585529612796411904|beaunid|je pense que le ceo de disney devrait se taire et mourir  !  {tCo}|2022-10-27 07:11:32+00:00|0
50571|1588130523255275522|snkfury|@ Seulement si le bus a de l’essence|2022-11-03 11:26:37+00:00|1
70501|1594314408540479489|Kuro_Hige_D|Aux yeux d'ces nègres ,  j'suis comme Tesla . ,, ; Où tu comptes aller avec ces fesses là ?  ; J'suis déjà passé là ou tu seras .  ; Si tu la suces pas ,  sache qu'une autre bitch la sucera . |2022-11-20 12:59:10+00:00|0
60483|1592026213241217024|Zetrac_|heureusement ya bleach le lundi|2022-11-14 05:26:42+00:00|2
54104|1589088442956513280|le10sport|PSG : Le gros avertissement de Galtier avant la Coupe du monde {tCo} {tCo}|2022-11-06 02:53:03+00:00|0
27370|1585225096444215303|Piti_Stef|Disney+ : les cinq nouvelles pépites à ne pas rater en novembre {tCo}|2022-10-26 11:01:29+00:00|2
79549|1596232655606947840|Marcelcamilla4|On avait même pas à me couper je ne dis que la vérité c est honteux .  Allez vous faire voir tous et toute 1 semaine de grève reconductible je prend de toute façon je ne suis pas payee {tCo}|2022-11-25 20:01:36+00:00|0
60438|1592057244442427392|bleachbrs_fr|La loterie « La 12e division ,  génies : sélection 1 » est disponible  !  ,, ; Une chance d'obtenir Akon 5★  !  {tCo} {htag} {tCo}|2022-11-14 07:30:00+00:00|2
58535|1591065217735135232|parissi_app|🙌 Nouvel événement sur Parissi : Être binaire ,  devenir binaire ,  se dire non binaire ,  Rencontre-débat avec Maria Candea ,  P .  .  .  {htag}érence {htag} {htag} {htag} {htag} {htag} {htag} @ @ @ @ {tCo}|2022-11-11 13:48:03+00:00|2
59895|1591690740970803202|Tingy974|❗️ "" Haïti/Madagascar/Cambodge ",  .  .  . ds 1 vingtaine de pays ,"  SES fontaines permettent à + de 250 000 personnes d'avoir accès à de l'eau potable .  Même ds d contrées isolées : fonctionnent ss électricité .  D pompes capables de purifier l'eau d lacs ou d rivières .  "" ", ; {tCo}|2022-11-13 07:13:39+00:00|2
60456|1592047226049597440|salh_s43|Nous devant l’épisode 6 de Bleach demain quand yamamoto va combattre . |2022-11-14 06:50:12+00:00|1
40314|1586800513210892289|anthony_georget|@ @ @ @ @ 3 49 . 3 en une semaine + réquisition des grève chez Total quoi|2022-10-30 19:21:38+00:00|0
80652|1596425112982802432|Colredefrance1|@ Bon ces bon arrêter on as compris qu'on étais plus en démocratie de toute façon bande de gros mytho de merde {htag} {htag} {htag}  ; Mais après sa les salarié de doivent pas faire grève si un syndicat a accepter les négociations 👍🤣🤣|2022-11-26 08:46:21+00:00|0
78123|1595707647583748099|ladevita12|Elon Musk envisage une  "" amnistie générale ""  pour les comptes suspendus de Twitter {tCo} via @|2022-11-24 09:15:24+00:00|1
66098|1593247467881263112|OVOMaster12|@ C’est certain  !  Le cinéma est un art et Tarantino est un grand de ce domaine  !  Par contre cracher sur Disney ou Warner n’avance pas le débat  !  On peut apprécier les films de Tarantino comme un Harry Potter ou un film Marvel  !  Pour moi il faut qu’il y en ai pour tous|2022-11-17 14:19:32+00:00|2
10967|1583069320669954049|postier12|@ Bien joufflu et en bonne santé le pognon conserve en bonne santé pour certains  ! |2022-10-20 12:15:12+00:00|0
59132|1591761636469411841|roberge_p|@ @ J'aime ça Alex  !  If a new Giga site materialize in this region ,  hope its closer to Montréal ,  QC .  Québec is rich in battery material ,  Li ,  Ni ,  Al production ,  electric grid is 99 . XX% made of renewable and lead Canada in overall EV market share &amp ,  Tesla brand .  Let's GO  !  @|2022-11-13 11:55:22+00:00|2
20736|1584438079045373954|superkanouille|trop marrant [chainsaw man spoiler gun devil arc] {tCo}|2022-10-24 06:54:10+00:00|2
47459|1587189001143947264|LaynandisTV|@ @ Sérieux XD je veux le clip^^|2022-10-31 21:05:21+00:00|2
64049|1592574134684643328|coachRankine|@ ÉPOUVANTABLE !  !  !  !  !  Du hockey ,  du tennis et des livres tout est pour vous 🤬,, ;  ; Des enfants malades transférés d'urgence à 150 km de chez eux - sante  ;  ; {tCo}|2022-11-15 17:43:56+00:00|0
81641|1596895945832398848|Haftron|@ Le milieu de santé est deservi et votre seule procuration c'est d'être soigner en français .  On voit bien où vous placer vos priorités|2022-11-27 15:57:17+00:00|0
35467|1585924146516877312|omega_the_21st|@ Je propose une grève de la faim pour protester contre cet etat de fait  !  Bon tu vas commencer mollo ,  en arrêtant les bonbons déjà ,  on verra pour le reste après ,  on va aller step-by-step 😛|2022-10-28 09:19:16+00:00|1
72678|1594680654377406464|arnopedram| “ le président du tribunal judiciaire de Paris a donc décidé ,  dans la solitude de son cabinet ,  de restaurer une arme d’Ancien Régime contre la liberté de la presse : la censure préalable . ” {tCo}|2022-11-21 13:14:30+00:00|0
32306|1586017391368376320|le_shogunotcho|@ @ la tu exprime juste ton avis si des gens l'ont plus acheter que snk et bleach c peut etre pck ca les attire plus si ca les attire plus c'est que pour eux c'est un excellent manga  .  .  . |2022-10-28 15:29:47+00:00|1
40422|1586816347153248256|Declafoot1|Régis Le Bris après la défaite de Lorient face à Nice : « On reste une équipe jeune » {tCo}|2022-10-30 20:24:33+00:00|1
70784|1594224718399557632|Onwzvv|Passionné de cinéma ,  de musique et de sport supporter de l as Monaco  ,  aime la lecture et fan de disney .  Nordiste expatrié dans le 64 .   {htag} {htag} {htag}|2022-11-20 07:02:46+00:00|1
62065|1592491090900582400|ValenzaSauveur|A partir de ce soir minuit Total et le gouvernement va s’enrichir à vitesse de la lumière avec la hausse de l’essence et gasoil . ⚡️🤨 une situation scandaleuse qui j’espère va déclencher une révolution .  Le pays en débâcle totale . {htag}écologique|2022-11-15 12:13:57+00:00|0
47854|1587260489108803585|disney_Iist|Je vais contacter Listen Bourgues national pour savoir si vous pouvez lettre et je vous le dirai dans quelques jours .  C’est tout ce que je peux faire pour vous .  Cela vous convient  ?  {tCo}|2022-11-01 01:49:25+00:00|1
50815|1588225270045200389|LesSusu303|@ @ @ Mdr tout le monde se fout de ta gueule alors que tu as fait du bon travail|2022-11-03 17:43:06+00:00|0
58346|1591147398252093441|ZemmourEric|Ma conférence de presse sur l’Ocean Viking en direct de Toulon .  ;  ; Regardez la vidéo sur ma chaîne YouTube : {tCo} ;  ; {htag} {tCo}|2022-11-11 19:14:36+00:00|2
55313|1589896386354765824|creapills|La marque de bière Brewdog vient de faire un énorme tacle à la Coupe du monde de football .  C'est propre {tCo}|2022-11-08 08:23:32+00:00|2
60990|1591742000470323201|Lolita19803072|{htag} ,  le taxi volant du futur ,  a enfin décollé dans le Val-d’Oise .  Taxi conçu et fabriqué en Allemagne ,  car comme tous le monde le sait ,  le site Airbus Hélicoptère Français est trop con pour fabriquer ça ,   autant l'acheter aux Allemands  !  !  ,,,,, ;  ; {tCo}|2022-11-13 10:37:20+00:00|0
79475|1596176111503052800|Neila|Franchement .  .  .  {tCo}|2022-11-25 16:16:55+00:00|0
61261|1592181904522244096|deleuzedeluna|@ Jte parle pas d’histoire mythologique jte parle de Marvel qui produit quand même systématiquement des bouses monumentales ,  le problème c’est pas le genre super-héros|2022-11-14 15:45:22+00:00|0
80679|1596421146290884608|dylanose|@ greve générale contre les49 . 3 à répétition !  ! |2022-11-26 08:30:36+00:00|0
40585|1586772364586635264|MF_NephroEpi|Normalement ,  je suis en grève  !  {tCo}|2022-10-30 17:29:47+00:00|1
48703|1587866928017702916|iamUllry|@ Cet homme est notre sauveur ,  notre cadeau du ciel .  D'ailleurs Elon est une anagramme de Noel ,  preuve de ce que j'avance .  Vive Musk  !  Vive le nouveau dieu  !  {tCo}|2022-11-02 17:59:11+00:00|2
57535|1590679999983800322|clarardf1|Nanterre qui banalise pas la journée alors qu’ils l’ont fait pour la grève ou y’avait tt les transports  ?  ?  ?  ? |2022-11-10 12:17:20+00:00|0
42877|1586851870961815553|GWGoldnadel|Avec tout le respect que je dois à mon confrère aîné ,  et en lui expliquant lentement : Si -elle - avait été - à -Alger - conformément - à la loi - elle - n’aurait - pas - pu - être - à - Paris - et la petite Lola - serait - toujours - en - vie  .  Compris  ?  {tCo}|2022-10-30 22:45:42+00:00|0
4351|1580189736336908294|Kowai24|@ Je viens de gagner des points avec mon mépris sur Marvel|2022-10-12 13:32:46+00:00|0
59165|1591475940361703428|demos_free|@ @ @ Ok pourquoi pas ,  mais France TV  , France inter tu crois qu'ils roulent pour qui ?  , ;  ; Par contre l'argument de @ sur la main qui me nourrit .  .  . 🤔 a ce rythme ,  il n'y aurait aucun salarié en grevé en France|2022-11-12 17:00:07+00:00|0
44440|1587184402756509696|Rachel_64_17|@ Au prix de l’essence actuellement encore plus 🤣|2022-10-31 20:47:04+00:00|1
32346|1586013836795998208|Blackyume_|@ @ Naruto blc la fin elle est désatruse  ,  snk ça pue la merde  ,  hxh en 90 épisode ça devient potable et encore c'est bien nul .  Bleach du début a la fin c'est bien comparé a tes fraude .  Hormis les dernière arc en manga qui est pas foue  ,  mais c'est justifiable l'auteur avez des souci|2022-10-28 15:15:40+00:00|0
29958|1585650737463414787|MGarrigou|Ce soir pas de Géographie à la carte pour cause de grève mais on reprogramme très vite le sujet des infrastructures critiques  !  {tCo}|2022-10-27 15:12:50+00:00|1
76312|1595313497436463104|lechtouns|Aujourd'hui le boufal football .  Allez les frères 🇲🇦 {tCo}|2022-11-23 07:09:11+00:00|2
20392|1584282219690229760|YMdF1954|Selon Le Parisien ,  Mbappé toucherait 6millions d'euros brut par mois selon les termes de sa prolongation au PSG .  À ces émoluments s'ajouteraient 180 millions de prime à la signature ainsi qu'une prime de « fidélité » touchée à chaque fin de mercato estival {tCo}|2022-10-23 20:34:50+00:00|1
10341|1583138685830443008|Blastheur|@ @ Mo tjr performant  ?  Rah ouais on parle pas le même football mdr|2022-10-20 16:50:50+00:00|0
73429|1594969451954421761|macbiquet|@ @ Ce déni est incroyable …  . |2022-11-22 08:22:05+00:00|0
41602|1586980129246482433|fn_mbanga|@ La faute aux familles aussi .  {htag} offre une couverture santé à 3500 par famille (5 pers) ,  paiement mobile en 1 h partout au Cameroun .  30 . 000 personnes nous contactent ,  seuls 1800+ s'inscrivent .  Toutes  sortes d'excuses y passent .  {tCo} {tCo}|2022-10-31 07:15:22+00:00|0
43569|1587353750301159425|ChroniqueDisney|(Critique réécrite {htag})  En 1997 -cela fera 25 ans jour pour jour demain- Brandy &amp ,  Whitney Houston campaient respectivement {htag} et Marraine la bonne Fée dans le téléfilm Disney musical ,  La Légende de Cendrillon . , ; On analyse ce petit bijou ,  là : {tCo} {tCo}|2022-11-01 08:00:00+00:00|2
65269|1592634004330934272|macojaune|ça flex en Tesla sans même fouiller les menus  ?  {tCo}|2022-11-15 21:41:50+00:00|0
56135|1590408129757732864|Tk94400|@ @ @ @ @ @ @ La direction of trade statistics est une définition par essence ,  elle représente la valeur des exportations et des importations de marchandises ventilée selon les principaux partenaires commerciaux d'un pays .  C’est pour ça qu’il n’y a pas de légende|2022-11-09 18:17:01+00:00|1
74654|1595009939457597440|DCBoy__|@ Wanda est dans l’univers marvel mdrr donc c’est plutôt mort  ;  ; Et je parle pas des comics jmen fiche des films c’est moins drôle|2022-11-22 11:02:58+00:00|1
11760|1583367396324085764|SapphicHorrLvr|@ WHAT I EAT IN THE DAY DISNEY EDITION MON RÊVE TU ME CONNAIS TELLEMENT MV JTM|2022-10-21 07:59:39+00:00|2
41551|1586981002198634497|russianhockey37|@ @ @ @ @ @ @ @ @ @ @ @ C'est toujours pareil|2022-10-31 07:18:50+00:00|0
62426|1592216149911306242|vesta94an|@ Une grève . |2022-11-14 18:01:26+00:00|1
63347|1592480209806172160|leprogresain|{htag} {htag} 🔴 Plus de 3000 employés des départements de l'Ain ,  du Rhône ,  de l'Ardèche ,  de l’Isère ,  de la Drôme et  de la Saône-et-Loire sont concernés .  👇 {tCo}|2022-11-15 11:30:43+00:00|1
72651|1594681380365271040|PhotoByDonnaG|Paris😍🇫🇷{htag} {htag} {htag} {htag} {htag} {htag} {tCo} via @😍😍😍😜👍🏻 {tCo}|2022-11-21 13:17:23+00:00|2
24577|1584243781036961793|hytbsd|Soit c’est le prix de l’essence soit c’est la grève de carburant qui me bloque pour bouger 😭🤦🏽‍♀️|2022-10-23 18:02:05+00:00|0
47838|1587268204040265728|disney__tasthic|@ Paris|2022-11-01 02:20:04+00:00|1
50975|1588207357246439430|yas_laetitia|@ @ Satan c’est celui qui a donné aux hommes les arts et les lettres [ … ] c’est l’intelligence ,  la clairvoyance ,  la pénétration .  », ;  ; Émission complète disponible ici : ; {tCo}|2022-11-03 16:31:56+00:00|1
60554|1592053986420752385|vbalintin69|@ Un paquet de cigarettes pollue moins les autres que 5 litres d’essence 😉 . |2022-11-14 07:17:03+00:00|0
64219|1592802302963814400|QuiVeutLaPaix|@ RIP j’espère que ton testament est rédigé|2022-11-16 08:50:36+00:00|0
60444|1592055170237890560|Marodelaspada|Profitez bien de l'épisode mes chères fans de BLEACH ,  ça va être mémorable  ! ,, ;  ; Vivre*|2022-11-14 07:21:46+00:00|2
49485|1587734381816340481|radioexpressfm|Les agents de la TRANSTU en grève - {tCo} {tCo}|2022-11-02 09:12:29+00:00|1
79018|1596039559007145985|zz75020_|Riles en très bon alors qu’il envoie tout le twitch fr {tCo}|2022-11-25 07:14:18+00:00|1
31871|1585876737946423297|Sir_Zhalotect|Marvel Snap ,  grosse drogue bien vénère 🤤|2022-10-28 06:10:53+00:00|2
74646|1595010570251542532|benj74940|@ @ au revoir à qui  ?  aux actionnaires j'espère parce que les clients n'en ont rien à faire de son départ …  on récupère enfin quelqu'un digne du nom de Disney que ce soit pour les parcs mais aussi pour les Disney ,  Marvel etc|2022-11-22 11:05:28+00:00|2
56652|1590633293233287168|Toniob_|C’est le grand retour tant attendu de Gratos sur la chaîne .  Il commence God of War Ragnarok tout de suite ,  évidemment en difficile .  Certains diraient qu’il n’apprend pas  , )  .  Journée stream complète ,  il s’arrête quand il n’en peut plus .  Go go go : ;  ; ➡️{tCo}😡 {tCo}|2022-11-10 09:11:44+00:00|2
81254|1596452616384356357|Lianki_|Bon petite annonce en despi ,  ; Je reprends les vidéos yt et stream ces vacances de noël .  ; Donc comme avant youtube y’aura unboxing tech et du coup let’s play (VOD) .  Sur twitch ce sera stream valo ,  lol ,  warzone 2 et les let’s play en live quoi|2022-11-26 10:35:39+00:00|2
49523|1587725439094620160|AurelieTraore14|✊ Soirée de soutien à la {htag} des auxiliaires de vie de Domidom {htag} ; 🗓 5 novembre ; 🕕 18 heures  ; 🗺 12 rue du Colonel Rémy Caen ; Grande salle de la maison des syndicats  ;  ; {tCo} ;  ; {htag} {tCo}|2022-11-02 08:36:57+00:00|1
31518|1585933194993582082|Granchette|@ @ La vulgarité est par essence populaire (vulgus : le commun/la foule) ,  s'en offusquer est donc en soi révélateur 😜|2022-10-28 09:55:13+00:00|1
60958|1591742544458977281|OPA_Paris|Bon dimanche à N’Golo Kanté !  Tu vas manquer à l’équipe Champion !  Bon rétablissement 🙏🏽 {htag} {tCo}|2022-11-13 10:39:30+00:00|2
66661|1593505962920448000|whoisdounia|ELON MUSK SI JE TE RETROUVE {htag}|2022-11-18 07:26:42+00:00|0
81241|1596452819980419073|claramicalement|@ @ @ Pour lui et ses acolytes ,  on ne vaut rien ,  vous ne l'avez pas compris  ? |2022-11-26 10:36:27+00:00|0
43381|1587128060305985537|123_INFO_SPORT|{htag} : une superbe opportunité ,"  un match parfait indispensable .  .  .  Tudor lance  "" la finale ""  face à Tottenham",, ; Source : MaxiFoot {htag} {htag} {htag} ; {tCo}|2022-10-31 17:03:11+00:00|1
64258|1592801419538857985|Tiiti_95|Wallah remercions Dieu pour nous avoir donné une bonne santé je vous jure|2022-11-16 08:47:05+00:00|2
55919|1590013543830949888|CCI_75|Salon {htag} 🚩 Les conseillers @ vous accueillent stand n°3 Pav .  7 . 1 🤗 @ {htag} {tCo}|2022-11-08 16:09:04+00:00|1
13379|1583572058738655232|cffr_flash|@ @ Sûrement le film du siècle on a rien pu faire Gg encore Marvel|2022-10-21 21:32:54+00:00|2
50945|1588207719068372992|AutoPlusMag|Ça tourne  !  🎞 ;  ; L'équipe d'Auto Plus est au Portugal pour prendre le volant du nouveau combi 100 % électrique de @ ,  l'ID .  Buzz ⚡,, ;  ; L'essai sera à retrouver sur la chaine YouTube d'Auto Plus 🔥 ;  ; Crédit Photo : Pierre Horny {tCo}|2022-11-03 16:33:22+00:00|2
14536|1583521523159076864|FannyBnrd|Les contributions seront ensuite remontées pour participer aux concertations en cours dans tout Paris  !  {tCo}|2022-10-21 18:12:06+00:00|1
72395|1594688084897046528|agrhissac38|Greve de l'AEEM à compter du lundi 21 nov .  2022 sur l'étendue nationale . |2022-11-21 13:44:01+00:00|1
60980|1591742139893182464|Terribaccino1|@ Paris|2022-11-13 10:37:53+00:00|1
48685|1587869067372904448|rockleefeur2|@ @ C juste un pretexte depuis qu elon musk a racheté twitter il cherche a faire taire l homme qui fais trembler l oligarchie mondiale cad le chef des fans de naps|2022-11-02 18:07:41+00:00|0
48678|1587870029399429128|LiliOdubois|Les fans de Elon Musk c'est des fous  !  Tu veux que Stephen t'envoie le diable au cul  !  ?  !  ?  Perso ni thanks ,  thank you mister king for your services .  ,, ;  ; Here's a cake 🍰 {tCo}|2022-11-02 18:11:30+00:00|0
75612|1594957228292849667|JennyHo16463418|Essence {htag}天博 Travers {htag}世界杯 Maria {htag}  {tCo}|2022-11-22 07:33:30+00:00|1
52824|1588455653059792896|KevinStiller|@ Imagine disney fait une série sur lui ahahahhah ;  ; Non j'rigole  !   ;  ; Mais imagine .  .  . |2022-11-04 08:58:34+00:00|1
75782|1595468881774383110|Working_Claire|@ Une critair 1 suffit pour rouler ,  donc une essence d'après 2011 .  Pas d'obligation d'acheter un VE .  .  (je suis pas pour la zfe ,  sauf qd je roule derrière un vieux diesel qui pue du cul ,  là je comprends l'intérêt ^^)|2022-11-23 17:26:38+00:00|0
51369|1588091698093363200|konate_nante|@ @ Bonne santé de fer au bébé et sa naman 🙏|2022-11-03 08:52:20+00:00|2
63618|1592355841985740800|ledauphine|Saint-André-le-Gaz .  Football : un revers à domicile {htag} {tCo}|2022-11-15 03:16:31+00:00|1
6907|1582743979514564608|w_nemui|@ @ Opening de Chainsaw Man ,  c’est magnifique {tCo}|2022-10-19 14:42:25+00:00|2
43634|1587337711429484545|ElCuistoo|@ C’est un nouveau Disney  ? |2022-11-01 06:56:16+00:00|1
60639|1592024025257181184|LouveRebelle01|@ @ @ @ si et elle le fait mais nupes la bloque ,  elle a demandé la tva à XX% sur nos factures d'énergie ,  gaz essence edf .  .  .  . nupes a voté contre car ce n est pas social ,  elle a demandé le blocage des prix sur 100 produits de la bouffe nupes a refusé car pas social .  .  . nupes roule pour macron|2022-11-14 05:18:00+00:00|0
75831|1595453381925113856|Lyjvvh|l’essence ,  les livres quand on vient de les acheter {tCo}|2022-11-23 16:25:02+00:00|1
33753|1586259067886002177|ActualiteApple|Spliiit ,  le petit Français qui agace Netflix ,  {htag} (@) et Disney {tCo}|2022-10-29 07:30:07+00:00|1
48206|1587565655599071236|bntomassilia|@ Mais tu connais le football toi  ?  A part sucer Neymar tu connais quoi toi|2022-11-01 22:02:02+00:00|0
62491|1592204970971262977|AEnzolino|@ Vous avez rien compris .  ; C pas la greve c est on nous prend pour des cons  .  Pardon nous prendre pour des cons c complotiste ,  on nous LAISSE pour des cons . |2022-11-14 17:17:01+00:00|0
31463|1585939952029810688|philou669|@ Ça devrait être principalement pour les véhicules électriques il y a une taxe sur l'essence qui est pour l'entretien des routes .  Les véhicules électriques ne paie pas pour les routes|2022-10-28 10:22:04+00:00|1
52807|1588163198611750918|Lagencemasquee|Pédagogie ,  prévention et créativité : les réseaux sociaux au cœur de la communication santé  !  A lire sur le blog du @ {tCo} via @ @ {htag} {htag}|2022-11-03 13:36:27+00:00|1
20237|1583893422464647168|heqinox|@ @ @ @ @ @ Le mensonge de la fausse exemplarité pour mieux envoyer les gueux à la piqure .  On en est encore là avec ces écervelées .  . |2022-10-22 18:49:53+00:00|0
10997|1583069035327279104|phgen9|@ @ @ La* maison .  .  .  ; Pas ma maison .  .  . |2022-10-20 12:14:04+00:00|1
62244|1592461432603480064|RadioofMagic|Actuellement sur Radio of Magic : ; Main Street ,  U . S . A .  ｜ Disney Dreams of Christmas,, ;  ; Pour savoir comment nous écouter ,  c'est par ici : {tCo},, ;  ; {htag} {htag} {htag} {tCo}|2022-11-15 10:16:06+00:00|1
68014|1593301631168385024|EmpereurDL|Ils ont v’la du flow et des chara design incroyable mais bleach &gt , &gt , &gt ,  (et itachi c’est pas un antagoniste) {tCo}|2022-11-17 17:54:45+00:00|2
75783|1595468670494703616|jean_manchzeck_|@ Essence F ,  ou pétrole desaromatisé ,  ça dégraisse bien oui  !  Mais c’est pas très bio .  , ; L’avantage c’est que c’est moins gras que l’essence .   ; Dans un local bien aéré ,  laisse sécher et n’oublie pas de graisser  ! |2022-11-23 17:25:48+00:00|1
40506|1586997265197146114|mibouney|@ @ La peau de l’Algérien est amère si tu la mange|2022-10-31 08:23:27+00:00|1
74952|1595028713892200456|ChisalSolana|Un réseau d'entrepôts de données de santé hospitaliers français très hétérogène {tCo} {htag} {htag} {htag} {htag} {htag} {htag} {htag} {htag} {htag} {htag} {htag} {htag} {htag} {htag} {htag} {tCo}|2022-11-22 12:17:34+00:00|1
60618|1592029011085230085|bellmanNo82| "" Joan Miro ","  l'essence des choses passées et présentes ""  ",  une expo qui modifie le regard porté sur l’artiste catalan au Bam Mons, ;  ; {tCo}|2022-11-14 05:37:49+00:00|1
60968|1591742445045551105|madamepv|Mon avis sur « Le Paris des Merveilles » (BD) de Pevel &amp ,  Willem 👉 {tCo}|2022-11-13 10:39:06+00:00|1
73823|1594747798754594816|AlexPop84398537|Bleach nous rappel ces dernieres semaine  ,  pourquoi au prime du big three  ,  il etait pas 3 em et pourquoi OP à attendu si longtemps pour grimper au podium , ; {htag}|2022-11-21 17:41:18+00:00|2
35529|1585921545439952898|PolBegov|Le front commun syndical de la fonction publique fédérale dépose un préavis de grève {tCo} - editor/source : Belga， édité par Lavinia Rotili|2022-10-28 09:08:56+00:00|1
6588|1582630560228265985|Carrera7S|Okay ,  je viens enfin d’arriver épisode 309 de {htag} 😱 Getsuga Tenshō Ultime  !  Juste incroyable|2022-10-19 07:11:44+00:00|2
62096|1592487915527208960|sauceDzzz|Le fait qu’il ne lâche pas le pistolet comme si c’était une essence me termine 😂 {tCo}|2022-11-15 12:01:20+00:00|1
50706|1588102034393374722|disneyplus_actu|@ @ Mdr c'est Disney pas les directeurs et membres de Disney company .  Disney fr c'est un compte public de pub|2022-11-03 09:33:25+00:00|1
71043|1594243925207916544|libertaire10|Appel à la grève jeudi 24 novembre devant la clinique Bénigne Joly à Talant {tCo}|2022-11-20 08:19:06+00:00|1
47960|1586006697608372225|Z4K4RY|@ @ @ Ça me choque pas quand tu voyais y’a pas si longtemps que ça mettait des kny ,  jjk en meilleur manga en pissant sur des Bleach parce qu’il y’a pas d’anime .  Cherche pas midi à 14h l’anime c’est ce qui influence le plus les gens . |2022-10-28 14:47:17+00:00|0
80612|1596430618916786178|123_INFO_FR|Une grève à GRDF prive de chauffage et d'eau chaude 1500 foyers en Île-de-France ; Source : BFMTV {htag} ; {tCo}|2022-11-26 09:08:14+00:00|0
72607|1594682311466897408|RDelinfo|Terrorisme : le procès en appel de l’attentat manqué du Thalys s’est ouvert - {tCo} ; La cour d’assises spéciale de Paris a ouvert ce lundi le procès en appel du Marocain Ayoub El Khazzani ,  pour l’attentat déjoué du Thalys en 2015 .  .  . Voir la source {tCo}|2022-11-21 13:21:05+00:00|1
3391|1582328806458593280|alebloa|REPORTAGE .  Dans les coulisses du vaccin contre la grippe {htag} {htag} {htag}-de-Reuil @ {tCo}|2022-10-18 11:12:40+00:00|1
59172|1591474747292147712|beauvois44110|Gaspard Proust sur la grève :  "" Elisabeth Borne annonce des réquisitions ",  .  .  .  {tCo} via @|2022-11-12 16:55:22+00:00|1
59190|1591468361988583429|c_detest|@ @ @ S’il n’y a pas besoin de faire grève ,  il n’y a pas de raison que ça se passe mal . |2022-11-12 16:30:00+00:00|1
66898|1593578399020118016|EvetsRuel|@ Ça fait 50 ans les urgences débordent et le port du masque ne les a pas sauvé  les 2 dernières années fac comment tu penses que maintenant ça va marché ?  Le masque ne protège personne !  !  !  @|2022-11-18 12:14:32+00:00|0
64349|1592821149960146944|FdeLo24601|J'en ai eu plein les yeux à Paris avec le retour de {htag} ,  l'éternel {htag} et le satyrique {htag} ,  qui a gagné deux Molière depuis que j'avais découvert ce musical .  @ {tCo}|2022-11-16 10:05:29+00:00|1
68009|1593303146511597571|bsktvllball|LEPISODE 6 DE BLEACH C TROOOOOP|2022-11-17 18:00:46+00:00|2
51340|1588092828336496641|OG_Big_Mooch|La décision anti-scientifique odieuse du CDC a clairement indiqué que personne ne se soucie de votre santé ou de celle de vos enfants .  Vous n'êtes qu'un pion dans leur jeu .  Vous ne pouvez faire confiance qu'à vous-même .  {tCo}|2022-11-03 08:56:50+00:00|2
75406|1595464703286956032|poussin34938124|video ;  ; Comment quitter son travail et toucher le chômage  ?  - COURS D'AUTODÉFENSE JURIDIQUE ;  ; {tCo} ; pli|2022-11-23 17:10:02+00:00|1
65581|1593234967257317382|slasherfun|@ Angoulême ,  c'est aussi les policiers municipaux qui font grève en se mettant à faire leur travail (ce qui .  .  .  déplaît fortement au maire) 🙃{tCo}|2022-11-17 13:29:51+00:00|1
45030|1587472522894770180|EditionsLug|Le poster du mois dans {htag} ,  le dernier poster régulier du magazine: Les Vengeurs ! ,, ; {htag} {htag} {tCo}|2022-11-01 15:51:57+00:00|1
48045|1587815893165301760|canalbaobabpoum|@ @ Mon avis d afrikaniste et elon musk est africain 😉😊 ; Ben c ke leurs milliards c dla merde .  .  ; Du vent ; Le pognon cash aux 4 coins cardinaux le vrai c est l or . - ; Bref musk est d abord 1 pion de la city de londres🤑 et doit à tout prix sauver leurs monaie d🐒  ;  ; £ ; $eux d Zuckerberg😊|2022-11-02 14:36:23+00:00|0
64423|1592920305949110272|Syncrow|Et non c’est toujours Bleach .  {tCo} {tCo}|2022-11-16 16:39:30+00:00|1
54155|1588888347442757633|willyboy198010|@ L’action pour Nanasse ,  c’est retourner lez merguez et boire sa bière sur un piquet de grève en crachant sur les usager de la SNCF|2022-11-05 13:37:56+00:00|0
41708|1587170555744366592|le10sport|Mercato - PSG : Une offre est tombée pour la priorité absolue de Campos {tCo} {tCo}|2022-10-31 19:52:03+00:00|1
31467|1585939711599968257|JeanMimi00|Adam était donc l'ancêtre de Vin Essence  ?  {tCo}|2022-10-28 10:21:07+00:00|1
71273|1594303713308549125|patachou151|@ @ Rappelez-nous combien de secondes vous avez essayé le vélo d'hiver dans votre vie .   En attendant ,   {tCo}|2022-11-20 12:16:40+00:00|1
67403|1593510174991450114|Catmentean|Envie de cramer toutes les Tesla que je vais croiser . |2022-11-18 07:43:26+00:00|0
27368|1585225129709432832|Dkbl_|On a tous une bonne raison d'aller au cinéma .  Pour Jack Lang ,  c'est pour pécho .  Le Disney de Noël arrive bientôt ,  by the way .  {tCo} {tCo}|2022-10-26 11:01:37+00:00|1
72179|1594407991251730432|salomesaque|Pendant qu'une partie du monde a les yeux rivés sur des matchs de football se déroulant dans des stades climatisés ,  la COP 27 ,  déterminante pour l'avenir de l'humanité ,  s'est soldée par un échec (à savoir un accord très loin de répondre à la gravité de la situation) .  {tCo}|2022-11-20 19:11:02+00:00|0
48084|1587432396638638081|Usmakabyle|Je serais à la Paris Games Week en compagnie de @ sur le stand @ dès demain à partir de 10h jusqu’à 12h (ainsi que vendredi et dimanche) !  Venez nous défier sur @  ,  plein de cadeaux seront à gagner 😉😉|2022-11-01 13:12:31+00:00|2
247|1581685196260540416|Djame_|@ @ Tiens je suis sympa ,  l’intégralité des faits tel qu’ils ont été présentés aux procès :,, ; {tCo}|2022-10-16 16:35:11+00:00|1
35264|1586412347136307201|Kazuhoz__|Tout d’abord chainsaw man: j’ai adorer l’histoire mais SURTOUT les personnages tous bien écrit et attachant que ça soit par leur histoire leur écriture ou juste leur comportement drôle et atypique ,  Denji est un vrai vent de fraîcheur en tant que protagoniste {tCo}|2022-10-29 17:39:12+00:00|2
62218|1592469862177439745|antoineJ69|@ Point positif : tout le monde l'a déjà oublié dans la grande lessiveuse à franchise qu'est Disney .  .  . |2022-11-15 10:49:36+00:00|1
47837|1587271792766369795|PetersonMario49|@ Plus jamais Disney . |2022-11-01 02:34:20+00:00|0
54882|1589521125683363840|saveflix|@ J'ai été conçu par Elon Musk ; {tCo}|2022-11-07 07:32:22+00:00|1
72978|1594578775160901632|CineHodeFR|Bob Iger redevient le CEO de Disney  !  Il remplace immédiatement Bob Chapek .  ;  ; (💻/@) {tCo}|2022-11-21 06:29:40+00:00|1
61281|1592177059064942595|jgsk130|@ hawkeye en dessous de miss marvel {tCo}|2022-11-14 15:26:06+00:00|1
76332|1595312481718730752|leparisiensport|France-Australie (4-1) : «Les Bleus ont envoyé un signal» ,  juge Robert Pirès,, ; ➡️ {tCo} {tCo}|2022-11-23 07:05:09+00:00|1
76829|1595671836188151808|EightMakes1Tem|Heureusement la meuf qui a insulté Yeosang n’était pas à Paris elle n’aurait plus eu de cheveux|2022-11-24 06:53:06+00:00|1
61857|1592207610211880960|aureliencpt|L'épisode 6 de Bleach JE SUIS SUR LE CUL ; {htag}|2022-11-14 17:27:30+00:00|2
50068|1587842333202153473|LAgonisant|le football de terror1ste c trop satisfaisant quand ca gagne|2022-11-02 16:21:27+00:00|1
50550|1588135023798063106|CourrierPicard|VIDÉO .  {htag}: on pourra bien rouler à l’huile de friture usagée {tCo} {htag} {htag} {htag} {tCo}|2022-11-03 11:44:30+00:00|0
48615|1587327701064507393|ivanrioufol|Pour avoir critiqué sur @ (dans {htag} ,  dimanche) la politique sanitaire du gouvernement et rappelé que le {htag} ,  médiocre ,  n'empêchait pas la transmission du {htag} ,  {htag} censure la vidéo de mon émission .  Replay ici : {tCo} {tCo}|2022-11-01 06:16:29+00:00|0
44444|1587184220736208900|tw2ezy|@ Faut regarder celles qui ont été mise à jour récemment ou sinon y a Essence and Co|2022-10-31 20:46:21+00:00|1
47638|1585224727412424707|BFMTV| "" Ce n'est pas la bonne manière de faire des films "" : James Cameron tacle Marvel et DC {tCo} {tCo}|2022-10-26 11:00:01+00:00|0
40427|1586816208506130432|Wilfriedekeu1|@ T'es amoureux de football qu'il offre au Monde et en temps que personne également il est incroyable .   ;  ; Du bah profitons de tout quoi|2022-10-30 20:24:00+00:00|2
80649|1596425334253293573|rodriguekusasuk|les médecins croupissent en travaillant ds des mauvaises conditions .   ;  ; La grève sera longue .  Si pas de loyer et transport  .   ;  ; Le syndicat corrompu va travailler .  {tCo}|2022-11-26 08:47:14+00:00|0
57791|1591339445680500737|LeVengeurSlippe|Disney va me fumer mais j'attend pas qu'il passe dans le domaine public pour mettre ses mickeys partout|2022-11-12 07:57:44+00:00|0
26376|1585243538106851329|UniverSmartphon|Les multiples impacts du réchauffement climatique sur la santé humaine – Le Monde {tCo}|2022-10-26 12:14:46+00:00|1
75595|1594964403174215680|TerminusBlog|@ C’est surtout que le prix de la baguette est dans le panier de produits qui sert de référence pour le calcul de l’inflation .  Mais c’est le loyer et l’essence qui posent problème monsieur le ministre .  La baguette sa va encore .  On est pas des clochards non plus … |2022-11-22 08:02:01+00:00|0
66876|1593339854414282752|Footballogue|Cristiano Ronaldo 💬 :  " Ces dernières années ,  le football a changé .  Je vois le football maintenant comme une entreprise ,  pour être honnête .  "  ;  ; Petite dédicace à Kyk's 👀 ;  ; (@) {tCo}|2022-11-17 20:26:38+00:00|1
66913|1593578088864047105|Monolecte|@ Dans une capitale européenne super dense ,  super interconnectée ,  et avec un système de santé par terre  ? |2022-11-18 12:13:18+00:00|0
60983|1591742119345270787|SoceQuiPeut|[FIL LIVE EVENT WWE PARIS]; J’invite les fans francophones de la WWE qui se rendront à Paris en avril 2023 à ne surtout pas reproduire ce qu’il s’est passé hier soir pendant le Saturday Night's Main Event à Peoria dans l’Illinois ; {htag} ; 1/3 {tCo}|2022-11-13 10:37:49+00:00|0
39980|1586720472099684353|wartases|@ J'étais à Auxerre la j'ai bougé a Paris pour les études|2022-10-30 14:03:35+00:00|1
60544|1592058410153181184|LaMatinaleLCI|C'est le retour des files d'attente devant les stations essence ,  des scènes qu'on pensait oubliées  !  ;  ; Les automobilistes se ruent de nouveau sur les pompes avant la fin de la ristourne sur le carburant demain soir .  ;  ; Tous les détails avec @ et @ sur @ {tCo}|2022-11-14 07:34:38+00:00|1
41639|1587173048746184707|GoraCule|Elon Must connaît le football 🐐 .  {tCo}|2022-10-31 20:01:57+00:00|1
40038|1586720114417836032|Xv3Radio75|✌Que des {htag} {htag} : ;  ;  ➡️ {tCo} ;  ; {htag} @ - Boy ;  ; {htag} {htag} {htag}êteDeLaMusique {htag} {htag} ;  ; ➡Téléchargez l'appli android : {tCo} {tCo}|2022-10-30 14:02:09+00:00|1
54865|1589522731523264512|Juli1B_|Les gens qui quittent {htag} à cause d’Elon Musk …  Dire qui parmi eux ,  y’en a forcément qui votent pour des gens douteux ,  qui regardent CNews ou Hanouna … ; Bref ,  tout ça montre le peu de cohérence dans la vie et les choix des gens .  J’en ai marre .  {tCo}|2022-11-07 07:38:45+00:00|0
73674|1594914124504473604|kevin42600299|Même si Bleach c'est très lourd en ce moment ,  pour moi c'est Chainsaw man l'animé de cette année .  .  .  en terme de réel NOUVEAUTÉ .  C'est une masterclass cet animé {tCo}|2022-11-22 04:42:14+00:00|2
50723|1588099283890454529|santedenfer|Disney fait débat avec sa première protagoniste grande taille ,  Bianca ,  dans son court-métrage Reflect {tCo}|2022-11-03 09:22:29+00:00|1
53898|1588813475916414976|Grestier|@ @ @ Sans mentir ,  à moins d'être proprio ,  ne plus avoir de dettes pour justement acheter ta maison  ;  même avec un bon salaire ,  après déductions de l'impôt ,  essence ,  facture ,  loyer éventuel ,  bouffe ,  autres taxes ,  même 100 XXX€ c'est beaucoup (encore plus accentué avec l'inflation) . |2022-11-05 08:40:26+00:00|0
56012|1590055258352672768|dalyyyyl|@ @ @ @ @ @ @ @ @ 2 buts qui n'aurait jamais du avoir lieu lol|2022-11-08 18:54:50+00:00|0
61289|1592175711217147910|AChalenton|@ @ @ Coucou merci pour ce super concours je participe avec plaisir mon marvel préféré est Doctor Strange bonne chance à tous ^^|2022-11-14 15:20:45+00:00|2
50653|1587883310956834816|vory_rus|@ La réussite peu coûter un peu de sa santé|2022-11-02 19:04:17+00:00|1
52925|1588523242926804992|Zack_Nani|Les amis ,  c'est pas demain ,  c'était pas hier ,  c'est MAINTENANT  !  ;  ; ▶️{tCo} {tCo}|2022-11-04 13:27:09+00:00|2
57019|1591053418197831681|Bntsylla|Aki .  .  Power …  🥲🥲🥲 Chainsaw man c’est pas comme fairy tail hyn|2022-11-11 13:01:09+00:00|0
74947|1595028824839823362|demai_anna|@ 3:18  " dentiste de campagne "   " guignol hab aux clash sur TPMP  "  n'a pas voulu intervenir pr pas perdre son calme "  ainsi v/talent en rhétorique EST une arme de destruct° massive  ?  ?  !  !  3:20:33 :  " il (vous) cause des gros pb de santé publique derrière avec ça " ; {tCo}|2022-11-22 12:18:00+00:00|0
60205|1591912549812928512|TelegrammeSport|⚽ Retrouvez tous les buteurs de D1 dans le district des Côtes-d'Armor 👇 ; {tCo}|2022-11-13 21:55:02+00:00|1
61422|1592155103410393089|izukny|@ @ L’arc est trop lourd mais quand tu lis vite t’es dégoûté .  .  moi le chap 81 m’a vraiment sorti du manga donc j’ai pas apprécier le Chainsaw man vs makima|2022-11-14 13:58:52+00:00|0
21203|1584047779428839430|HatakeoyajiHiro|[Passez des vacances saines dans la nature😁  !  Quelle découverte des champignons maitake naturels  !  💖] - [Pommes Shinshu] [Arbres géants naturels Quercus serrata ; {tCo} @ ;  ; {htag}é ; {htag} ; {htag} ; {htag} ; {htag} {tCo}|2022-10-23 05:03:15+00:00|1
58714|1591568490376347649|fablyon69330|Je crois black Panther est un des meilleurs Marvel 2022 avec Doctor strange je veux rien savoir|2022-11-12 23:07:52+00:00|2
269|1581684077803208704|CineHodeFR|-  " C'est juste une bande-annonce "   ; - La bande-annonce de Spider-Man (2002) ;  ; {htag} {tCo}|2022-10-16 16:30:45+00:00|1
67641|1593263669453983744|zi_chevrette|@ Ya 2 ans c'était 140 tampomate mtn 105 ;  ; Le prix de l'essence frero .  . |2022-11-17 15:23:54+00:00|0
65265|1592636656968175616|JeanLouisPROVAX|@ @ Mais non gilles a une tesla comme moi  ! |2022-11-15 21:52:23+00:00|1
69604|1594002327408586754|Ucupcarepa|Quand l'épisode de Bleach sortira {tCo}|2022-11-19 16:19:04+00:00|1
45025|1587473534296768512|ryujin_sensei|Ma vidéo sur Titan (Hulk) :  ; - ; {htag} {htag} {htag} {htag} {htag} {htag} {htag} {htag}  ; - ; {tCo}|2022-11-01 15:55:59+00:00|1
20918|1584490607007109120|FBenrix|@ @ On a annoncé plein de films mais y'a toujours zéro film ,  Marvel a réussi un tour de force en produisant chaque année suivi de DC et Sony .  ;  ; Comment se fait il qu'un univers aussi riche que SW n'est pas capable de nous faire des films chaque année  ? |2022-10-24 10:22:53+00:00|0
32497|1585712712495030274|Mmi_Lina|@ @ Le salaire ?  ; Les avantages  ?  ; Combien de jour de grève/an  ? |2022-10-27 19:19:06+00:00|0
65924|1592860087793512448|MichelleVerfail|@ @ @ Bien sur qu'il savait  , il est responsable ; {tCo}|2022-11-16 12:40:13+00:00|0
73865|1595042857114632195|MatouEcureuil|@ @ @ @ @ @ @ @ @ @ Et tu sens vraiment la différence en termes de conduite ou tenue de route  ?  😁|2022-11-22 13:13:46+00:00|1
22078|1584642982740836352|PimentaToki|@ @ Oh le raccourci t'as peur  !  Se cut de l'extrême ,  à la seconde près !  Parfait XD|2022-10-24 20:28:22+00:00|2
81273|1596452422813364224|JeromeVigliano|Laloue Et Chiquet - Association de Malfaiteurs - Violation de Domicile e .  .  .  {tCo} via @ {htag} {htag} {htag}|2022-11-26 10:34:52+00:00|1
58848|1591157033092644864|Haroono_Souls|Bonjournoo ; {htag}感想 {htag}山本元柳斎重國 ; {tCo}|2022-11-11 19:52:53+00:00|1
82401|1596547088606982144|samblankok|Ptdrrrrrr a l'entrainement ça doit lui demander des conseils il répond juste  " bah écoute c'est juste le football "  {tCo}|2022-11-26 16:51:02+00:00|1
20041|1584165959538905093|Tonycalier|@ Bonne chance j’ai pas réussi à trouver tu trouves du diesel par contre essence rien 👍|2022-10-23 12:52:51+00:00|0
20518|1582638674075783168|Trollatao|Hier en regardant l'ep de Bleach quand Nel est apparue et qu'elle parlait j'arrivais pas ne pas entendre Dori mdrrr ( elles ont la même seiyuu )|2022-10-19 07:43:58+00:00|2
14841|1583805767106166784|KMbp7342goal|@ La règle du hors-jeu au foot 😜 non sans rire plutôt les règles du football américain .  .  . |2022-10-22 13:01:35+00:00|0
37657|1586583676137119745|DisneyphileLIVE|{htag} : Découvrez le palmarès des {htag} 2022 pour Disney ,  qui remporte cette année une douzaine de trophées .  {tCo} {tCo}|2022-10-30 05:00:00+00:00|2
75351|1595465178346553344|PeterRHann1|@ @ @ Not a Chevy .  A Toyota Corolla|2022-11-23 17:11:55+00:00|1
50596|1588124002689712128|trtfrancais|Depuis plus trois semaines ,  les raffineries de Total Energies sont bloquées par un mouvement de grève porté par la CGT provoquant une pénurie d’essence et des difficultés pour les français au quotidien {tCo}|2022-11-03 11:00:42+00:00|1
81639|1596896032377430021|jeanluclacroix7|@ D'accord il faut choisir ses combats  .  La santé est plus importante que la défense de la langue . |2022-11-27 15:57:37+00:00|0
62820|1592313507898613760|jonathanalbaba|@ @ @  . @ continue de participer au meurtre de masse avec  . @ et  . @ avec les mesure sur les masque qui sont tres dangereux .  ;  ; {tCo}|2022-11-15 00:28:18+00:00|0
53427|1588588035045982208|SalafiyaF|🆕️ {htag} ;  ; 📌 1ère obligation des ablutions (suite) : ; Rincer la bouche et le nez ;  ; 🎙️Par Saad Abou AbdirRahman ;  ; 🔻Abonnez-vous et partagez ;  ; 📲 À écouter sur : ; {tCo} {tCo}|2022-11-04 17:44:36+00:00|1
8330|1582677606683623425|Figaro_Culture|Jamel Debbouze soutient les salariés de Total en grève {tCo}|2022-10-19 10:18:40+00:00|1
46615|1587412781061529603|InsumisoEl|@ @ Si tu as le sourire qui va avec  , le top 🤩|2022-11-01 11:54:34+00:00|2
54163|1588886337511632896|Ronybams|@ @ Nous les @ on s'en fout ,  Président LOLO WHITE .  Réapprends seulement ton boulot de coach et ramène-nous @ en LDC .  FAIS LA GRÈVE contre @ stp . |2022-11-05 13:29:57+00:00|0
77227|1595543194577543185|PenniSoomaroo|@ le clan du lundi|2022-11-23 22:21:56+00:00|1
65315|1592918534249926656|DanPaq1|@ Est-ce qu’ils donnent des cours de recyclage en médecine ?  Si ce sont nos élites qui siègent au Collège des Médecins il ne faut pas se demander pourquoi nos hôpitaux débordent surtout avec un comptable comme ministre de la Santé|2022-11-16 16:32:28+00:00|0
56425|1590592902656585730|Memodupdnt|Faut dire ou pas que avant tout c’est un film marvel on suit la phase 4 le s de quoi tu me parle {tCo}|2022-11-10 06:31:14+00:00|0
10800|1583063303701803009|al3xJoestar|@ @ Si ca fait chier personne ,  ca sert a rien une greve|2022-10-20 11:51:18+00:00|1
54661|1589178515664273408|mushroomsfairy|@ @ @ Y a vraiment aucun rapport☠️ en mode parce qu’heard c’est une mauvaise personne depp peut pas l’être  ?  Y’a pas forcément un bon et un méchant wtf on est pas dans un disney|2022-11-06 08:50:58+00:00|0
50061|1587842637356273666|jerome_clam|Football .  National : l’AS Nancy-Lorraine ne jouera pas à Villefranche ce vendredi  - {tCo}|2022-11-02 16:22:40+00:00|1
8401|1582676808595832833|938chgr|J’aurai dû faire grève hier|2022-10-19 10:15:30+00:00|0
59127|1591764506350391298|ADUFF_NET|@ ganador de european Puppy Award Spain 🇪🇸2022 .  Congratulation tambien a @ y @ 👏👏👏👏 à Xman Aduff Private Club {tCo}|2022-11-13 12:06:46+00:00|2
63624|1592354596504182786|MukayaSalomon|le Mouvement de Solidarité pour le changement MSC en sigle par l'entremise de la fédération d lubumbashi1 ,  organise un tournoi de football du 15 au 24 décembre 2022 dans le Q/ kabulameshi C/ de lubumbashi ,  inscrivait vos équipe maintenant car les place son limité ; @ {tCo}|2022-11-15 03:11:34+00:00|2
55045|1589679946909519872|stefgenicot|@ @ Tu peux dire ce que tu veux mais pas au nom de n’importe qui .  .  {tCo}|2022-11-07 18:03:28+00:00|0
80672|1596422054672486401|DocArnica|@ Non je ne suis pas confuse et je sais de quoi je parle  .  Les syndicats et les mouvements non syndiqués se retrouvent ensemble à faire grève avec tout un tas de propositions qui ne seront pas toutes retenues loin s’en faut|2022-11-26 08:34:12+00:00|0
80223|1596481394213113856|J_Bardella|Les Français sont au pied du mur de l’inflation ,  qui continue de taper très fort .  La paix fiscale ,  la baisse des taxes sur l’essence ,  la revalorisation du travail et de l’effort sont des urgences absolues .  Nous portons ces mesures de justice sociale .  {tCo}|2022-11-26 12:30:00+00:00|0
60910|1591783728430419969|RTBF_iXPe|La Team Get Belged sort la LAN-Area 2-1  ! 🇧🇪🎮Ils sont qualifiés pour les demis des @  !   ;  ; 🟣{tCo}  {htag} {htag} {tCo}|2022-11-13 13:23:09+00:00|2
47330|1587565835865964545|PereROCHE|L'OM la honte du football français sur la scène européenne {htag} {htag}|2022-11-01 22:02:45+00:00|0
50554|1588133982025154561|MoonMonira| " La colonisation de la terre d’Israël est l’essence du sionisme . ; Sans colonisation ,  nous n’accomplirons pas le sionisme . ; C'est aussi simple que ça . ” 4/8 {tCo}|2022-11-03 11:40:22+00:00|1
32778|1586080488942632960|clevelJR|@ D’avis de payer des cotisations uniquement pour la santé et garder le reste|2022-10-28 19:40:31+00:00|0
71012|1594256913113513990|gaelle2B35|Ouest-France: Rennes .  Les employés de l'assainissement toujours en grève . {tCo}|2022-11-20 09:10:42+00:00|1
66905|1593578222532403202|al_bendy|@ @ Test pcr quotidien  ?  Mais vous etes serieux  ? |2022-11-18 12:13:50+00:00|0
69957|1593887173249568769|FilleSo|@ Si la personne ne veut pas le divorce ,  c'est la procédure qui se prolonge .  Bien évidemment ,  la communication est l'essence de toute relation .  Si la loi doit trancher ,  ce n'est certainement pas en condamnant . |2022-11-19 08:41:29+00:00|1
56359|1590641243918585856|patrickyassine|@ @ Ils ont peut-être demander un prime pour aller faire grève|2022-11-10 09:43:19+00:00|0
75731|1595114443842924545|tobiyama7|@ frérot c'est juste triste de voir que tu ne comprend rien a la philosophie de bleach .  Apres je t'en veux pas t'es fan de chainsaw man c'est sur que t'aura pas ca dans ton anime ou denji se fait craché dans la bouche comme un cleps .  .  .  .  c'est lui qui fait pitié|2022-11-22 17:58:13+00:00|0
29174|1585530505436561411|Neronight3|@ Fait tourner les codes Disney steup ☠️|2022-10-27 07:15:04+00:00|0
55556|1589860447905550336|Ramlus29|@ Le film risquait de sortir directement sur Disney + .  .  . |2022-11-08 06:00:43+00:00|1
48622|1587327510404014081|melkamu_b|Credit Suisse Collapse {tCo} via @|2022-11-01 06:15:44+00:00|0
38378|1586693279999041536|Guillaumepsyth|Il n'y a toujours pas assez de professionnels de santé et on a dit non les crimes contre l'humanité continuent contre moi et on a dit non|2022-10-30 12:15:31+00:00|0
52815|1588162945325961216|Consultgratuite|@ @ @ Personnellement je ne facture aucun frais aux patients (un choix personnel qui n’affecte en rien le droit de mes collègues de le faire) .  Le patient n’a pas non plus à être pris en otage sur qqc sur lequel il n’a aucun Ctrl .  C’est un prob macro . |2022-11-03 13:35:27+00:00|1
62423|1592217507485880320|_jadxe|@ y’a grève tt les jours ou quoi|2022-11-14 18:06:50+00:00|0
69956|1593887353109716993|eti_mou|@ Pas con !  On arrête toutes les ristournes actuelles pour l'essence .  Les contraventions payées par les cyclistes devraient amplement suffire ,  puisqu'ils font tellement d'infractions !  !  !  Je vote pour . |2022-11-19 08:42:12+00:00|0
20614|1583583071281893376|SlyRock_SR|@ J'étais DC mais depuis quelque année Marvel ont vraiment bien géré la qualité de leur film et de quelque série sur Disney + c'est la raison que je me suis désintéresser de l'univers DC pcq qu'il semble avoir eu très peu de bon contenu provenant de l'univers DC|2022-10-21 22:16:40+00:00|1
4346|1580191727968604160|hardmugenjin|@ on est déjà largement au-dessus de Kengan Ashura ,  Kingdom ou les immondes séquences en 3D de Baki|2022-10-12 13:40:41+00:00|2
59178|1591472908546744321|alain06200|@ C est qu il devait être ennuyant ce mariage .  Sinon pour les usagers qui paye cher leurs billets c est quand la grève ou ça t arrange .   Je demande hein ? |2022-11-12 16:48:04+00:00|0
55550|1589867236394557440|SincerelyBineta|Ça c'est une vrai Avant Première  !  !  !  ; Celle de France était sèche ,  sans assaisonnement ,  ni poivre ni sel  !  ; Disney France ne respecte définitivement pas la communauté noire .  Ça invite la Star Ac à croire qu'il n'y a pas assez d'influencers noir-e-s {htag} {tCo}|2022-11-08 06:27:42+00:00|0
68051|1593292631974576129|NicoRobinette|@ @ @ {tCo} ça a été le premier à imposer Bleach sur YouTube faut rendre à césar|2022-11-17 17:19:00+00:00|1
75251|1595079312348418051|PatPSGdepuis82|{htag} OFFICIEL : ;  ; 🎂5⃣7⃣ Joyeux anniversaire à notre {htag} 𝐕𝐢𝐧𝐜𝐞𝐧𝐭 𝐆𝐮𝐞́𝐫𝐢𝐧 🙌❤️💙 {tCo} ;  ; — Paris Saint-Germain (@) Nov 22 ,  2022|2022-11-22 15:38:37+00:00|2
70344|1594068913536761857|Davidinh01|@ Le football gagne|2022-11-19 20:43:40+00:00|2
47169|1587744454110330882|karim2k|Les professeurs en grève .  {htag} {tCo}|2022-11-02 09:52:31+00:00|1
49504|1587731730190008322|Figaro_Economie|Énergie : nouveaux appels à la grève pour les salaires chez GRDF et Enedis {htag}Économie 💶 {tCo}|2022-11-02 09:01:57+00:00|1
60746|1591842667977375746|whilbur|@ @ Les qualités de bon gestionnaire de M .  Dubé sont indéniables mais les défis sont grands en rapport le réseau de santé québécois et bien des Ministres passés s'y sont frottés .  .  . Gestion déficiente ,  vieillissement ,  manque de personnel ,  un mur se dessine .  .  . Bonne chance à M .  Dubé 🤞|2022-11-13 17:17:21+00:00|2
49472|1587736638838431744|marcel_charest|@ @ @ L'état de droit est très utile pour ceux et seulement ceux qui ont le pouvoir .  ; Allez expliquer l'état de droit aux salariés des raffineries qui ont fait une grève légale .  ; Les riches profitent de l'état de droit tandis que les moins riches subissent l'état de droit . |2022-11-02 09:21:28+00:00|0
65813|1593265183832641537|Leo_et_Max|AKI À L'AGONIE : LE SACRIFICE DE DENJI VS LE DÉMON ÉTERNITÉ  ?  !  Chainsaw Man S1E06 Saison 1 épisode 6 ; ► {tCo} ; {htag} {htag} {htag} {htag} {htag} {htag} {tCo}|2022-11-17 15:29:55+00:00|0
60599|1592038262230622209|julianflemme|Mettre XXX€ d'essence le lundi matin nn c'est dur|2022-11-14 06:14:35+00:00|0
55070|1589663297380679680|Okay_Mael|l’épisode de bleach j’ai jamais vu une dinguerie pareil  !  !  !  ;  ; @|2022-11-07 16:57:19+00:00|2
23772|1584471637931409409|FootActu_1|2011/12 : le meilleur prime de l'histoire du football  ?  ✨ ;  ; 👕 58 matchs ; ⚽ 71 buts ; 🎯 27 passes décisives {tCo}|2022-10-24 09:07:31+00:00|2
35480|1585923775975104512|LoudL|Belgique: Le front commun syndical de la fonction publique fédérale dépose un préavis de grève {tCo}|2022-10-28 09:17:47+00:00|1
61832|1592208427526557696|byb_carmen|Cest lui ouioui Tite Kubo qui nous a pondu cette giga masterclass .  MEERCIIIIIIIIIIIIIIIIII {htag} {tCo}|2022-11-14 17:30:45+00:00|2
